Linked: (/home/hrigroup2/ws_vbr/devel/.private/vbr_rviz_plugin/share/vbr_rviz_plugin/cmake/vbr_rviz_pluginConfig-version.cmake, /home/hrigroup2/ws_vbr/devel/share/vbr_rviz_plugin/cmake/vbr_rviz_pluginConfig-version.cmake)
Linked: (/home/hrigroup2/ws_vbr/devel/.private/vbr_rviz_plugin/share/vbr_rviz_plugin/cmake/vbr_rviz_pluginConfig.cmake, /home/hrigroup2/ws_vbr/devel/share/vbr_rviz_plugin/cmake/vbr_rviz_pluginConfig.cmake)
Linked: (/home/hrigroup2/ws_vbr/devel/.private/vbr_rviz_plugin/lib/libvbr_rviz_plugin.so, /home/hrigroup2/ws_vbr/devel/lib/libvbr_rviz_plugin.so)
Linked: (/home/hrigroup2/ws_vbr/devel/.private/vbr_rviz_plugin/lib/pkgconfig/vbr_rviz_plugin.pc, /home/hrigroup2/ws_vbr/devel/lib/pkgconfig/vbr_rviz_plugin.pc)
