Linked: (/home/hrigroup2/ws_vbr/devel/.private/ros_myo/share/roseus/ros/ros_myo/manifest.l, /home/hrigroup2/ws_vbr/devel/share/roseus/ros/ros_myo/manifest.l)
Linked: (/home/hrigroup2/ws_vbr/devel/.private/ros_myo/share/roseus/ros/ros_myo/msg/MyoArm.l, /home/hrigroup2/ws_vbr/devel/share/roseus/ros/ros_myo/msg/MyoArm.l)
Linked: (/home/hrigroup2/ws_vbr/devel/.private/ros_myo/share/roseus/ros/ros_myo/msg/MyoPose.l, /home/hrigroup2/ws_vbr/devel/share/roseus/ros/ros_myo/msg/MyoPose.l)
Linked: (/home/hrigroup2/ws_vbr/devel/.private/ros_myo/share/roseus/ros/ros_myo/msg/EmgArray.l, /home/hrigroup2/ws_vbr/devel/share/roseus/ros/ros_myo/msg/EmgArray.l)
Linked: (/home/hrigroup2/ws_vbr/devel/.private/ros_myo/share/common-lisp/ros/ros_myo/msg/_package_MyoArm.lisp, /home/hrigroup2/ws_vbr/devel/share/common-lisp/ros/ros_myo/msg/_package_MyoArm.lisp)
Linked: (/home/hrigroup2/ws_vbr/devel/.private/ros_myo/share/common-lisp/ros/ros_myo/msg/EmgArray.lisp, /home/hrigroup2/ws_vbr/devel/share/common-lisp/ros/ros_myo/msg/EmgArray.lisp)
Linked: (/home/hrigroup2/ws_vbr/devel/.private/ros_myo/share/common-lisp/ros/ros_myo/msg/ros_myo-msg.asd, /home/hrigroup2/ws_vbr/devel/share/common-lisp/ros/ros_myo/msg/ros_myo-msg.asd)
Linked: (/home/hrigroup2/ws_vbr/devel/.private/ros_myo/share/common-lisp/ros/ros_myo/msg/_package_EmgArray.lisp, /home/hrigroup2/ws_vbr/devel/share/common-lisp/ros/ros_myo/msg/_package_EmgArray.lisp)
Linked: (/home/hrigroup2/ws_vbr/devel/.private/ros_myo/share/common-lisp/ros/ros_myo/msg/MyoArm.lisp, /home/hrigroup2/ws_vbr/devel/share/common-lisp/ros/ros_myo/msg/MyoArm.lisp)
Linked: (/home/hrigroup2/ws_vbr/devel/.private/ros_myo/share/common-lisp/ros/ros_myo/msg/_package.lisp, /home/hrigroup2/ws_vbr/devel/share/common-lisp/ros/ros_myo/msg/_package.lisp)
Linked: (/home/hrigroup2/ws_vbr/devel/.private/ros_myo/share/common-lisp/ros/ros_myo/msg/_package_MyoPose.lisp, /home/hrigroup2/ws_vbr/devel/share/common-lisp/ros/ros_myo/msg/_package_MyoPose.lisp)
Linked: (/home/hrigroup2/ws_vbr/devel/.private/ros_myo/share/common-lisp/ros/ros_myo/msg/MyoPose.lisp, /home/hrigroup2/ws_vbr/devel/share/common-lisp/ros/ros_myo/msg/MyoPose.lisp)
Linked: (/home/hrigroup2/ws_vbr/devel/.private/ros_myo/share/gennodejs/ros/ros_myo/_index.js, /home/hrigroup2/ws_vbr/devel/share/gennodejs/ros/ros_myo/_index.js)
Linked: (/home/hrigroup2/ws_vbr/devel/.private/ros_myo/share/gennodejs/ros/ros_myo/msg/EmgArray.js, /home/hrigroup2/ws_vbr/devel/share/gennodejs/ros/ros_myo/msg/EmgArray.js)
Linked: (/home/hrigroup2/ws_vbr/devel/.private/ros_myo/share/gennodejs/ros/ros_myo/msg/MyoPose.js, /home/hrigroup2/ws_vbr/devel/share/gennodejs/ros/ros_myo/msg/MyoPose.js)
Linked: (/home/hrigroup2/ws_vbr/devel/.private/ros_myo/share/gennodejs/ros/ros_myo/msg/MyoArm.js, /home/hrigroup2/ws_vbr/devel/share/gennodejs/ros/ros_myo/msg/MyoArm.js)
Linked: (/home/hrigroup2/ws_vbr/devel/.private/ros_myo/share/gennodejs/ros/ros_myo/msg/_index.js, /home/hrigroup2/ws_vbr/devel/share/gennodejs/ros/ros_myo/msg/_index.js)
Linked: (/home/hrigroup2/ws_vbr/devel/.private/ros_myo/share/ros_myo/cmake/ros_myo-msg-paths.cmake, /home/hrigroup2/ws_vbr/devel/share/ros_myo/cmake/ros_myo-msg-paths.cmake)
Linked: (/home/hrigroup2/ws_vbr/devel/.private/ros_myo/share/ros_myo/cmake/ros_myo-msg-extras.cmake, /home/hrigroup2/ws_vbr/devel/share/ros_myo/cmake/ros_myo-msg-extras.cmake)
Linked: (/home/hrigroup2/ws_vbr/devel/.private/ros_myo/share/ros_myo/cmake/ros_myoConfig.cmake, /home/hrigroup2/ws_vbr/devel/share/ros_myo/cmake/ros_myoConfig.cmake)
Linked: (/home/hrigroup2/ws_vbr/devel/.private/ros_myo/share/ros_myo/cmake/ros_myoConfig-version.cmake, /home/hrigroup2/ws_vbr/devel/share/ros_myo/cmake/ros_myoConfig-version.cmake)
Linked: (/home/hrigroup2/ws_vbr/devel/.private/ros_myo/lib/python2.7/dist-packages/ros_myo/__init__.py, /home/hrigroup2/ws_vbr/devel/lib/python2.7/dist-packages/ros_myo/__init__.py)
Linked: (/home/hrigroup2/ws_vbr/devel/.private/ros_myo/lib/python2.7/dist-packages/ros_myo/msg/_MyoArm.py, /home/hrigroup2/ws_vbr/devel/lib/python2.7/dist-packages/ros_myo/msg/_MyoArm.py)
Linked: (/home/hrigroup2/ws_vbr/devel/.private/ros_myo/lib/python2.7/dist-packages/ros_myo/msg/_EmgArray.py, /home/hrigroup2/ws_vbr/devel/lib/python2.7/dist-packages/ros_myo/msg/_EmgArray.py)
Linked: (/home/hrigroup2/ws_vbr/devel/.private/ros_myo/lib/python2.7/dist-packages/ros_myo/msg/_MyoPose.py, /home/hrigroup2/ws_vbr/devel/lib/python2.7/dist-packages/ros_myo/msg/_MyoPose.py)
Linked: (/home/hrigroup2/ws_vbr/devel/.private/ros_myo/lib/python2.7/dist-packages/ros_myo/msg/__init__.py, /home/hrigroup2/ws_vbr/devel/lib/python2.7/dist-packages/ros_myo/msg/__init__.py)
Linked: (/home/hrigroup2/ws_vbr/devel/.private/ros_myo/lib/pkgconfig/ros_myo.pc, /home/hrigroup2/ws_vbr/devel/lib/pkgconfig/ros_myo.pc)
Linked: (/home/hrigroup2/ws_vbr/devel/.private/ros_myo/include/ros_myo/EmgArray.h, /home/hrigroup2/ws_vbr/devel/include/ros_myo/EmgArray.h)
Linked: (/home/hrigroup2/ws_vbr/devel/.private/ros_myo/include/ros_myo/MyoPose.h, /home/hrigroup2/ws_vbr/devel/include/ros_myo/MyoPose.h)
Linked: (/home/hrigroup2/ws_vbr/devel/.private/ros_myo/include/ros_myo/MyoArm.h, /home/hrigroup2/ws_vbr/devel/include/ros_myo/MyoArm.h)
