[01m[K/home/hrigroup2/ws_vbr/src/virtual_barrier_ros/src/path_planning.cpp:[m[K In member function ‘[01m[Kvoid Planner::pathPlanner(geometry_msgs::PoseArray)[m[K’:
[01m[K/home/hrigroup2/ws_vbr/src/virtual_barrier_ros/src/path_planning.cpp:550:152:[m[K [01;31m[Kerror: [m[Kno matching function for call to ‘[01m[Kstd::map<std::__cxx11::basic_string<char>, moveit_msgs::AttachedCollisionObject_<std::allocator<void> > >::count(moveit_msgs::CollisionObject&)[m[K’
             if (planning_scene_interface.getAttachedObjects().count(objectName) != 0 || planning_scene_interface.getAttachedObjects().count(toggleLower[01;31m[K)[m[K == 0) input_path.poses[i].position.z -= 0.09;
                                                                                                                                                        [01;31m[K^[m[K
In file included from [01m[K/usr/include/c++/7/map:61:0[m[K,
                 from [01m[K/opt/ros/melodic/include/pluginlib/./class_loader.hpp:33[m[K,
                 from [01m[K/opt/ros/melodic/include/pluginlib/class_loader.h:35[m[K,
                 from [01m[K/home/hrigroup2/ws_vbr/src/virtual_barrier_ros/src/path_planning.cpp:1[m[K:
[01m[K/usr/include/c++/7/bits/stl_map.h:1208:7:[m[K [01;36m[Knote: [m[Kcandidate: std::map<_Key, _Tp, _Compare, _Alloc>::size_type std::map<_Key, _Tp, _Compare, _Alloc>::count(const key_type&) const [with _Key = std::__cxx11::basic_string<char>; _Tp = moveit_msgs::AttachedCollisionObject_<std::allocator<void> >; _Compare = std::less<std::__cxx11::basic_string<char> >; _Alloc = std::allocator<std::pair<const std::__cxx11::basic_string<char>, moveit_msgs::AttachedCollisionObject_<std::allocator<void> > > >; std::map<_Key, _Tp, _Compare, _Alloc>::size_type = long unsigned int; std::map<_Key, _Tp, _Compare, _Alloc>::key_type = std::__cxx11::basic_string<char>]
       [01;36m[Kcount[m[K(const key_type& __x) const
       [01;36m[K^~~~~[m[K
[01m[K/usr/include/c++/7/bits/stl_map.h:1208:7:[m[K [01;36m[Knote: [m[K  no known conversion for argument 1 from ‘[01m[Kmoveit_msgs::CollisionObject {aka moveit_msgs::CollisionObject_<std::allocator<void> >}[m[K’ to ‘[01m[Kconst key_type& {aka const std::__cxx11::basic_string<char>&}[m[K’
[01m[K/usr/include/c++/7/bits/stl_map.h:1214:2:[m[K [01;36m[Knote: [m[Kcandidate: template<class _Kt> decltype (((const std::map<_Key, _Tp, _Compare, _Alloc>*)this)->std::map<_Key, _Tp, _Compare, _Alloc>::_M_t._M_count_tr(__x)) std::map<_Key, _Tp, _Compare, _Alloc>::count(const _Kt&) const [with _Kt = _Kt; _Key = std::__cxx11::basic_string<char>; _Tp = moveit_msgs::AttachedCollisionObject_<std::allocator<void> >; _Compare = std::less<std::__cxx11::basic_string<char> >; _Alloc = std::allocator<std::pair<const std::__cxx11::basic_string<char>, moveit_msgs::AttachedCollisionObject_<std::allocator<void> > > >]
  [01;36m[Kcount[m[K(const _Kt& __x) const -> decltype(_M_t._M_count_tr(__x))
  [01;36m[K^~~~~[m[K
[01m[K/usr/include/c++/7/bits/stl_map.h:1214:2:[m[K [01;36m[Knote: [m[K  template argument deduction/substitution failed:
/usr/include/c++/7/bits/stl_map.h: In substitution of ‘[01m[Ktemplate<class _Kt> decltype (((const std::map<std::__cxx11::basic_string<char>, moveit_msgs::AttachedCollisionObject_<std::allocator<void> > >*)this)->std::map<std::__cxx11::basic_string<char>, moveit_msgs::AttachedCollisionObject_<std::allocator<void> > >::_M_t.std::_Rb_tree<std::__cxx11::basic_string<char>, std::pair<const std::__cxx11::basic_string<char>, moveit_msgs::AttachedCollisionObject_<std::allocator<void> > >, std::_Select1st<std::pair<const std::__cxx11::basic_string<char>, moveit_msgs::AttachedCollisionObject_<std::allocator<void> > > >, std::less<std::__cxx11::basic_string<char> >, std::allocator<std::pair<const std::__cxx11::basic_string<char>, moveit_msgs::AttachedCollisionObject_<std::allocator<void> > > > >::_M_count_tr<_Kt, _Req>(__x)) std::map<std::__cxx11::basic_string<char>, moveit_msgs::AttachedCollisionObject_<std::allocator<void> > >::count<_Kt>(const _Kt&) const [with _Kt = moveit_msgs::CollisionObject_<std::allocator<void> >][m[K’:
[01m[K/home/hrigroup2/ws_vbr/src/virtual_barrier_ros/src/path_planning.cpp:550:152:[m[K   required from here
[01m[K/usr/include/c++/7/bits/stl_map.h:1214:2:[m[K [01;31m[Kerror: [m[Kno matching function for call to ‘[01m[Kstd::_Rb_tree<std::__cxx11::basic_string<char>, std::pair<const std::__cxx11::basic_string<char>, moveit_msgs::AttachedCollisionObject_<std::allocator<void> > >, std::_Select1st<std::pair<const std::__cxx11::basic_string<char>, moveit_msgs::AttachedCollisionObject_<std::allocator<void> > > >, std::less<std::__cxx11::basic_string<char> >, std::allocator<std::pair<const std::__cxx11::basic_string<char>, moveit_msgs::AttachedCollisionObject_<std::allocator<void> > > > >::_M_count_tr(const moveit_msgs::CollisionObject_<std::allocator<void> >&) const[m[K’
In file included from [01m[K/usr/include/c++/7/map:60:0[m[K,
                 from [01m[K/opt/ros/melodic/include/pluginlib/./class_loader.hpp:33[m[K,
                 from [01m[K/opt/ros/melodic/include/pluginlib/class_loader.h:35[m[K,
                 from [01m[K/home/hrigroup2/ws_vbr/src/virtual_barrier_ros/src/path_planning.cpp:1[m[K:
[01m[K/usr/include/c++/7/bits/stl_tree.h:1234:2:[m[K [01;36m[Knote: [m[Kcandidate: template<class _Kt, class _Req> std::_Rb_tree<_Key, _Val, _KeyOfValue, _Compare, _Alloc>::size_type std::_Rb_tree<_Key, _Val, _KeyOfValue, _Compare, _Alloc>::_M_count_tr(const _Kt&) const [with _Kt = _Kt; _Req = _Req; _Key = std::__cxx11::basic_string<char>; _Val = std::pair<const std::__cxx11::basic_string<char>, moveit_msgs::AttachedCollisionObject_<std::allocator<void> > >; _KeyOfValue = std::_Select1st<std::pair<const std::__cxx11::basic_string<char>, moveit_msgs::AttachedCollisionObject_<std::allocator<void> > > >; _Compare = std::less<std::__cxx11::basic_string<char> >; _Alloc = std::allocator<std::pair<const std::__cxx11::basic_string<char>, moveit_msgs::AttachedCollisionObject_<std::allocator<void> > > >]
  [01;36m[K_M_count_tr[m[K(const _Kt& __k) const
  [01;36m[K^~~~~~~~~~~[m[K
[01m[K/usr/include/c++/7/bits/stl_tree.h:1234:2:[m[K [01;36m[Knote: [m[K  template argument deduction/substitution failed:
[01m[K/usr/include/c++/7/bits/stl_tree.h:1231:9:[m[K [01;31m[Kerror: [m[Kno type named ‘[01m[Ktype[m[K’ in ‘[01m[Kstruct std::__has_is_transparent<std::less<std::__cxx11::basic_string<char> >, moveit_msgs::CollisionObject_<std::allocator<void> >, void>[m[K’
         [01;31m[Ktypename[m[K _Req =
         [01;31m[K^~~~~~~~[m[K
make[2]: *** [CMakeFiles/path_planner.dir/src/path_planning.cpp.o] Error 1
make[1]: *** [CMakeFiles/path_planner.dir/all] Error 2
make: *** [all] Error 2
