[01m[K/home/hrigroup2/ws_vbr/src/virtual_barrier_ros/src/path_planning.cpp:[m[K In member function ‘[01m[Kvoid Planner::robotCommand(std_msgs::UInt32)[m[K’:
[01m[K/home/hrigroup2/ws_vbr/src/virtual_barrier_ros/src/path_planning.cpp:1166:17:[m[K [01;31m[Kerror: [m[K‘[01m[KtrajectoryDisplay[m[K’ was not declared in this scope
                 [01;31m[KtrajectoryDisplay[m[K(robot_trajectory);
                 [01;31m[K^~~~~~~~~~~~~~~~~[m[K
[01m[K/home/hrigroup2/ws_vbr/src/virtual_barrier_ros/src/path_planning.cpp:1166:17:[m[K [01;36m[Knote: [m[Ksuggested alternative: ‘[01m[KtrajectoryPoints[m[K’
                 [01;36m[KtrajectoryDisplay[m[K(robot_trajectory);
                 [01;36m[K^~~~~~~~~~~~~~~~~[m[K
                 [32m[KtrajectoryPoints[m[K
make[2]: *** [CMakeFiles/path_planner.dir/src/path_planning.cpp.o] Error 1
make[1]: *** [CMakeFiles/path_planner.dir/all] Error 2
make: *** [all] Error 2
