[01m[K/home/hrigroup2/ws_vbr/src/virtual_barrier_ros/src/path_planning.cpp:[m[K In member function ‘[01m[Kvoid Planner::picker(moveit_msgs::CollisionObject)[m[K’:
[01m[K/home/hrigroup2/ws_vbr/src/virtual_barrier_ros/src/path_planning.cpp:320:9:[m[K [01;31m[Kerror: [m[K‘[01m[Kgroup[m[K’ was not declared in this scope
         [01;31m[Kgroup[m[K.detachObject("Pen Placeholder");
         [01;31m[K^~~~~[m[K
[01m[K/home/hrigroup2/ws_vbr/src/virtual_barrier_ros/src/path_planning.cpp:320:9:[m[K [01;36m[Knote: [m[Ksuggested alternative: ‘[01m[Kfromfp[m[K’
         [01;36m[Kgroup[m[K.detachObject("Pen Placeholder");
         [01;36m[K^~~~~[m[K
         [32m[Kfromfp[m[K
make[2]: *** [CMakeFiles/path_planner.dir/src/path_planning.cpp.o] Error 1
make[1]: *** [CMakeFiles/path_planner.dir/all] Error 2
make: *** [all] Error 2
