[01m[K/home/hrigroup2/ws_vbr/src/virtual_barrier_ros/src/path_planning_rviz.cpp:92:34:[m[K [01;31m[Kerror: [m[Kredeclaration of ‘[01m[Kmoveit_msgs::CollisionObject Planner::workspace[m[K’
     moveit_msgs::CollisionObject [01;31m[Kworkspace[m[K;
                                  [01;31m[K^~~~~~~~~[m[K
[01m[K/home/hrigroup2/ws_vbr/src/virtual_barrier_ros/src/path_planning_rviz.cpp:85:34:[m[K [01;36m[Knote: [m[Kprevious declaration ‘[01m[Kmoveit_msgs::CollisionObject Planner::workspace[m[K’
     moveit_msgs::CollisionObject [01;36m[Kworkspace[m[K;
                                  [01;36m[K^~~~~~~~~[m[K
make[2]: *** [CMakeFiles/path_planner_rviz.dir/src/path_planning_rviz.cpp.o] Error 1
make[1]: *** [CMakeFiles/path_planner_rviz.dir/all] Error 2
make: *** [all] Error 2
